<?xml version="1.0" encoding="UTF-8"?>
<session version="1.0">
<refactoring accessors="true" comment="Delete element from project &apos;assignment7&apos;&#x0D;&#x0A;- Original project: &apos;assignment7&apos;&#x0D;&#x0A;- Original element: &apos;assignment7/src/assingment7&apos;" description="Delete element" element1="/src&lt;assingment7" elements="1" flags="589830" id="org.eclipse.jdt.ui.delete" resources="0" stamp="1548124945563" subPackages="false" version="1.0"/>
</session>